/Users/pdaneshyar/Documents/TestFrameworkDemo/resources/AppTests/src/test/java/DockerApp/ChromeTests.java
/Users/pdaneshyar/Documents/TestFrameworkDemo/resources/AppTests/src/test/java/DockerApp/FirefoxTests.java
/Users/pdaneshyar/Documents/TestFrameworkDemo/resources/AppTests/src/test/java/DockerApp/TestSuite.java
