-------------------------------------------------------------------------------
Test set: DockerApp.FirefoxTests
-------------------------------------------------------------------------------
Tests run: 1, Failures: 0, Errors: 1, Skipped: 0, Time elapsed: 77.245 s <<< FAILURE! - in DockerApp.FirefoxTests
DockerApp.FirefoxTests  Time elapsed: 77.243 s  <<< ERROR!
org.openqa.selenium.remote.UnreachableBrowserException: 
Could not start a new session. Possible causes are invalid address of the remote server or browser start-up failure.
Build info: version: '3.141.59', revision: 'e82be7d358', time: '2018-11-14T08:17:03'
System info: host: 'UK-C02YV207LVDM', ip: 'fe80:0:0:0:1ca4:ea64:2811:1241%en0', os.name: 'Mac OS X', os.arch: 'x86_64', os.version: '10.15.3', java.version: '12.0.2'
Driver info: driver.version: RemoteWebDriver
	at DockerApp.FirefoxTests.Setup(FirefoxTests.java:84)
Caused by: java.net.ConnectException: Failed to connect to /172.23.0.3:4444
	at DockerApp.FirefoxTests.Setup(FirefoxTests.java:84)
Caused by: java.net.ConnectException: Operation timed out (Connection timed out)
	at DockerApp.FirefoxTests.Setup(FirefoxTests.java:84)

